Estimation: nlmixr2 • PKPDsim
…
## err_prop 0.23                                0.23                     
## err_add  1.62                                1.62                     
##  
##   Covariance Type (fit$covMethod): linFim
##   Correlations in between subject variability (BSV) matrix:
##     cor:eta_V,eta_CL 
##           0.761  
##  
## 
##   Full BSV covariance (fit$omega) or correlation (fit$omegaR; diagonals=SDs) 
##   Distribution stats (mean/skewness/kurtosis/p-value) available in fit$shrink 
##   Censoring (fit$censInformation): No censoring
## 
## ── Fit Data (object fit is a modified tibble): ──
## # A tibble: 200 × 16
##   ID     TIME    DV  PRED   RES IPRED  IRES IWRES eta_CL  eta_V     y    A1
##   <fct> <dbl> <dbl> <dbl> <dbl> <dbl> <dbl> <dbl>  <dbl>  <dbl> <dbl> <dbl>
## 1 1       8   19.7  13.9   5.82 16.0  3.67  0.911 -0.156 -0.109 16.0   728.
## 2 1      23.5  4.85  3.20  1.64  3.96 0.889 0.478 -0.156 -0.109  3.96  180.
## 3 1      25   38.0  29.7   8.28 33.7  4.38  0.553 -0.156 -0.109 33.7  1528.
## # ℹ 197 more rows
## # ℹ 4 more variables: CL <dbl>, V <dbl>, tad <dbl>, dosenum <dbl>
…
